…
```r
# Cleaning Data
languages2<- languages %>% select(-"L1L2") %>% 
  plyr::rename(c("C"="Country", "lex"="Lexicon", "morph"="Morphology","new_feat"="New_Features", "new_sounds"="New_Sounds","Edu.day"="Edu_Days"))
```
 

```r
languages2
```

```
## # A tibble: 50,235 × 15
##    L1      Country L2      AaA   LoR Edu_D…¹ Sex   Family ISO63…² Enroll Speak…³
##    <chr>   <chr>   <chr> <dbl> <dbl>   <dbl> <chr> <chr>  <chr>    <dbl>   <dbl>
##  1 Afrika… SouthA… Engl…    25     0       4 Fema… Indo-… afr         93     496
##  2 Afrika… SouthA… Germ…    47     2       4 Male  Indo-… afr         93     542
##  3 Afrika… SouthA… Mono…    23    23       3 Fema… Indo-… afr         93     585
##  4 Afrika… SouthA… Mono…    42     2       2 Fema… Indo-… afr         93     521
##  5 Afrika… SouthA… Mono…    22    19       3 Fema… Indo-… afr         93     639
##  6 Afrika… SouthA… Mono…    37     2       1 Male  Indo-… afr         93     531
##  7 Afrika… SouthA… Mono…    22     6       4 Fema… Indo-… afr         93     566
##  8 Afrika… Sudan   Engl…    31     3       4 Male  Indo-… afr         31     439
##  9 Afrika… Sudan   Engl…    25     4       4 Male  Indo-… afr         31     480
## 10 Afrika… Afghan… Mono…    23     3       4 Fema… Indo-… afr         19     505
## # … with 50,225 more rows, 4 more variables: Morphology <dbl>, Lexicon <dbl>,
## #   New_Features <dbl>, New_Sounds <dbl>, and abbreviated variable names
## #   ¹​Edu_Days, ²​ISO639.3, ³​Speaking
```
…
```r
languages2 %>% 
  mutate(AaA=as.factor(AaA))
```

```
## # A tibble: 50,235 × 15
##    L1      Country L2    AaA     LoR Edu_D…¹ Sex   Family ISO63…² Enroll Speak…³
##    <chr>   <chr>   <chr> <fct> <dbl>   <dbl> <chr> <chr>  <chr>    <dbl>   <dbl>
##  1 Afrika… SouthA… Engl… 25        0       4 Fema… Indo-… afr         93     496
##  2 Afrika… SouthA… Germ… 47        2       4 Male  Indo-… afr         93     542
##  3 Afrika… SouthA… Mono… 23       23       3 Fema… Indo-… afr         93     585
##  4 Afrika… SouthA… Mono… 42        2       2 Fema… Indo-… afr         93     521
##  5 Afrika… SouthA… Mono… 22       19       3 Fema… Indo-… afr         93     639
##  6 Afrika… SouthA… Mono… 37        2       1 Male  Indo-… afr         93     531
##  7 Afrika… SouthA… Mono… 22        6       4 Fema… Indo-… afr         93     566
##  8 Afrika… Sudan   Engl… 31        3       4 Male  Indo-… afr         31     439
##  9 Afrika… Sudan   Engl… 25        4       4 Male  Indo-… afr         31     480
## 10 Afrika… Afghan… Mono… 23        3       4 Fema… Indo-… afr         19     505
## # … with 50,225 more rows, 4 more variables: Morphology <dbl>, Lexicon <dbl>,
## #   New_Features <dbl>, New_Sounds <dbl>, and abbreviated variable names
## #   ¹​Edu_Days, ²​ISO639.3, ³​Speaking
```
…
```r
languages2 %>% 
  group_by(AaA) %>% 
  summarise(mean_age_at_arrival=mean(AaA))
```

```
## # A tibble: 73 × 2
##      AaA mean_age_at_arrival
##    <dbl>               <dbl>
##  1     0                   0
##  2     1                   1
##  3     2                   2
##  4     3                   3
##  5     4                   4
##  6     5                   5
##  7     6                   6
##  8     7                   7
##  9     8                   8
## 10     9                   9
## # … with 63 more rows
```
…
```r
languages2 %>% 
  group_by(Country) %>% 
  select(L1) %>% 
  summarize(n_languages=n_distinct(L1)) %>%  
  arrange(-n_languages) #for top 5 countries that speak the most amount of different L1
```

```
## Adding missing grouping variables: `Country`
```

```
## # A tibble: 119 × 2
##    Country       n_languages
##    <chr>               <int>
##  1 Netherlands            32
##  2 USSR                   30
##  3 Germany                29
##  4 Yugoslavia             27
##  5 Iran                   19
##  6 UnitedKingdom          19
##  7 Russia                 17
##  8 Turkey                 17
##  9 UnitedStates           16
## 10 Morocco                15
## # … with 109 more rows
```


```r
netherlands_languages <- languages2 %>% 
  select(L1, L2, Country) %>% 
  filter(Country == "Netherlands")
netherlands_languages
```

```
## # A tibble: 735 × 3
##    L1        L2          Country    
##    <chr>     <chr>       <chr>      
##  1 Afrikaans English     Netherlands
##  2 Afrikaans English     Netherlands
##  3 Arabic    French      Netherlands
##  4 Arabic    French      Netherlands
##  5 Arabic    English     Netherlands
##  6 Arabic    French      Netherlands
##  7 Arabic    Monolingual Netherlands
##  8 Arabic    English     Netherlands
##  9 Arabic    French      Netherlands
## 10 Arabic    French      Netherlands
## # … with 725 more rows
```
…
```
## # A tibble: 3,025 × 4
## # Groups:   Country [3]
##    Country     Speaking Edu_Days Edu_Days_Category
##    <chr>          <dbl>    <dbl> <chr>            
##  1 Netherlands      640        4 very high        
##  2 Netherlands      556        4 very high        
##  3 USSR             497        1 low              
##  4 Netherlands      533        4 very high        
##  5 Germany          546        4 very high        
##  6 USSR             494        4 very high        
##  7 Netherlands      547        4 very high        
##  8 Germany          579        4 very high        
##  9 Netherlands      534        1 low              
## 10 Netherlands      495        1 low              
## # … with 3,015 more rows
```
…
