…
```r
languages2<- languages %>% select(-"L1L2") %>% 
  plyr::rename(c("C"="Country", "lex"="Lexicon", "morph"="Morphology","new_feat"="New_Features", "new_sounds"="New_Sounds","Edu.day"="Edu_Days"))
```
 

```r
languages2
```

```
## # A tibble: 50,235 × 15
##    L1      Country L2      AaA   LoR Edu_D…¹ Sex   Family ISO63…² Enroll Speak…³
##    <chr>   <chr>   <chr> <dbl> <dbl>   <dbl> <chr> <chr>  <chr>    <dbl>   <dbl>
##  1 Afrika… SouthA… Engl…    25     0       4 Fema… Indo-… afr         93     496
##  2 Afrika… SouthA… Germ…    47     2       4 Male  Indo-… afr         93     542
##  3 Afrika… SouthA… Mono…    23    23       3 Fema… Indo-… afr         93     585
##  4 Afrika… SouthA… Mono…    42     2       2 Fema… Indo-… afr         93     521
##  5 Afrika… SouthA… Mono…    22    19       3 Fema… Indo-… afr         93     639
##  6 Afrika… SouthA… Mono…    37     2       1 Male  Indo-… afr         93     531
##  7 Afrika… SouthA… Mono…    22     6       4 Fema… Indo-… afr         93     566
##  8 Afrika… Sudan   Engl…    31     3       4 Male  Indo-… afr         31     439
##  9 Afrika… Sudan   Engl…    25     4       4 Male  Indo-… afr         31     480
## 10 Afrika… Afghan… Mono…    23     3       4 Fema… Indo-… afr         19     505
## # … with 50,225 more rows, 4 more variables: Morphology <dbl>, Lexicon <dbl>,
## #   New_Features <dbl>, New_Sounds <dbl>, and abbreviated variable names
## #   ¹​Edu_Days, ²​ISO639.3, ³​Speaking
```
…
##Distribution of Second Language

```r
#languages2 %>% count("L2") %>% 
 # ggplot(aes(x=L2,y=freq, fill=L2))+geom_col()+labs(x="L2", y="count", title = "Representation of Second Language in the Study Language")+scale_y_log10()+coord_flip()+geom_text(aes(label=freq))
```


```r
languages2 %>% 
  mutate(AaA=as.factor(AaA))
```

```
## # A tibble: 50,235 × 15
##    L1      Country L2    AaA     LoR Edu_D…¹ Sex   Family ISO63…² Enroll Speak…³
##    <chr>   <chr>   <chr> <fct> <dbl>   <dbl> <chr> <chr>  <chr>    <dbl>   <dbl>
##  1 Afrika… SouthA… Engl… 25        0       4 Fema… Indo-… afr         93     496
##  2 Afrika… SouthA… Germ… 47        2       4 Male  Indo-… afr         93     542
##  3 Afrika… SouthA… Mono… 23       23       3 Fema… Indo-… afr         93     585
##  4 Afrika… SouthA… Mono… 42        2       2 Fema… Indo-… afr         93     521
##  5 Afrika… SouthA… Mono… 22       19       3 Fema… Indo-… afr         93     639
##  6 Afrika… SouthA… Mono… 37        2       1 Male  Indo-… afr         93     531
##  7 Afrika… SouthA… Mono… 22        6       4 Fema… Indo-… afr         93     566
##  8 Afrika… Sudan   Engl… 31        3       4 Male  Indo-… afr         31     439
##  9 Afrika… Sudan   Engl… 25        4       4 Male  Indo-… afr         31     480
## 10 Afrika… Afghan… Mono… 23        3       4 Fema… Indo-… afr         19     505
## # … with 50,225 more rows, 4 more variables: Morphology <dbl>, Lexicon <dbl>,
## #   New_Features <dbl>, New_Sounds <dbl>, and abbreviated variable names
## #   ¹​Edu_Days, ²​ISO639.3, ³​Speaking
```
##Distribution of Age at Arrival

```r
#languages2 %>% count("AaA") %>% 
#  ggplot(aes(x=AaA,y=freq))+geom_point()+labs(x="Age at Arrival", y="Number of Participants", title = "Representation of Age at Arrival in the Netherlands")+scale_y_log10()
```

```r
languages2 %>% 
  group_by(AaA) %>% 
  summarise(mean_age_at_arrival=mean(AaA))
```

```
## # A tibble: 73 × 2
##      AaA mean_age_at_arrival
##    <dbl>               <dbl>
##  1     0                   0
##  2     1                   1
##  3     2                   2
##  4     3                   3
##  5     4                   4
##  6     5                   5
##  7     6                   6
##  8     7                   7
##  9     8                   8
## 10     9                   9
## # … with 63 more rows
```
